r4ds_wrangle_exercises_12-13
…
1. In this case study I set na.rm = TRUE just to make it easier to check that we had the correct values. Is this reasonable? Think about how missing values are represented in this dataset. Are there implicit missing values? Whats the difference between an NA and zero?

No, in this instance NAs should have been replaced with 0s. Knowing that 0 cases of a certain type in a certain year in a certain country is still valuable information. Some cells did have 0 when there were 0 cases, and some had NA instead, making it seem that maybe countries where there were NAs werent evaluated or something like that.

2. What happens if you neglect the mutate() step? (mutate(key = stringr::str_replace(key, newrel, new_rel)))

You get a ton of missing value warnings. We split out new_rel on the underscore, so the data without the underscore only had two strings instead of 3, causing a bunch of NA data where new_rel couldnt be split appropriately.

3. I claimed that iso2 and iso3 were redundant with country. Confirm this claim. Both sets of code below produce the same number of rows, which they wouldnt have if there were different iso2 or iso3 values across the same country.

who %>%
  group_by(country, iso2, iso3) %>%
  count()

## # A tibble: 219 x 4
## # Groups:   country, iso2, iso3 [219]
##                country  iso2  iso3     n
##                  <chr> <chr> <chr> <int>
##  1         Afghanistan    AF   AFG    34
##  2             Albania    AL   ALB    34
##  3             Algeria    DZ   DZA    34
##  4      American Samoa    AS   ASM    34
##  5             Andorra    AD   AND    34
##  6              Angola    AO   AGO    34
##  7            Anguilla    AI   AIA    34
##  8 Antigua and Barbuda    AG   ATG    34
##  9           Argentina    AR   ARG    34
## 10             Armenia    AM   ARM    34
## # ... with 209 more rows

who %>%
  unite(combine, country, iso2, iso3) %>%
  group_by(combine) %>%
  count()

## # A tibble: 219 x 2
## # Groups:   combine [219]
##                       combine     n
##                         <chr> <int>
##  1         Afghanistan_AF_AFG    34
##  2             Albania_AL_ALB    34
##  3             Algeria_DZ_DZA    34
##  4      American Samoa_AS_ASM    34
##  5             Andorra_AD_AND    34
##  6              Angola_AO_AGO    34
##  7            Anguilla_AI_AIA    34
##  8 Antigua and Barbuda_AG_ATG    34
##  9           Argentina_AR_ARG    34
## 10             Armenia_AM_ARM    34
## # ... with 209 more rows
…
It would also relate to destination in the flights table, and you would assume that the day/hour data tied to the destination airports would tie to the arrival time instead of the departure time for the origins.

4. We know that some days of the year are special, and fewer people than usual fly on them. How might you represent that data as a data frame? What would be the primary keys of that table? How would it connect to the existing tables?

You would want the keys to be year, month, day, origin, and maybe dest, depending on the goals. If the data frame has aggregate data about # of flights per day by origin/dest combo, you could join back to flights on the key combination to get all the specific flights with fewer than X flights on a given day.

13.3.1

1. Add a surrogate key to flights.

flights %>%  
  mutate(surrogatekey = row_number())

## # A tibble: 336,776 x 20
##     year month   day dep_time sched_dep_time dep_delay arr_time
##    <int> <int> <int>    <int>          <int>     <dbl>    <int>
##  1  2013     1     1      517            515         2      830
##  2  2013     1     1      533            529         4      850
##  3  2013     1     1      542            540         2      923
##  4  2013     1     1      544            545        -1     1004
##  5  2013     1     1      554            600        -6      812
##  6  2013     1     1      554            558        -4      740
##  7  2013     1     1      555            600        -5      913
##  8  2013     1     1      557            600        -3      709
##  9  2013     1     1      557            600        -3      838
## 10  2013     1     1      558            600        -2      753
## # ... with 336,766 more rows, and 13 more variables: sched_arr_time <int>,
## #   arr_delay <dbl>, carrier <chr>, flight <int>, tailnum <chr>,
## #   origin <chr>, dest <chr>, air_time <dbl>, distance <dbl>, hour <dbl>,
## #   minute <dbl>, time_hour <dttm>, surrogatekey <int>
…
2. Add the location of the origin and destination (i.e.the lat and lon) to flights.

flights %>%
  left_join(airports, c("origin" = "faa")) %>%
  left_join(airports, c("dest" = "faa")) %>% 
  select(year, month, day, tailnum, origin, lat.x, lon.x, dest, lat.y, lon.y)

## # A tibble: 336,776 x 10
##     year month   day tailnum origin    lat.x     lon.x  dest    lat.y
##    <int> <int> <int>   <chr>  <chr>    <dbl>     <dbl> <chr>    <dbl>
##  1  2013     1     1  N14228    EWR 40.69250 -74.16867   IAH 29.98443
##  2  2013     1     1  N24211    LGA 40.77725 -73.87261   IAH 29.98443
##  3  2013     1     1  N619AA    JFK 40.63975 -73.77893   MIA 25.79325
##  4  2013     1     1  N804JB    JFK 40.63975 -73.77893   BQN       NA
##  5  2013     1     1  N668DN    LGA 40.77725 -73.87261   ATL 33.63672
##  6  2013     1     1  N39463    EWR 40.69250 -74.16867   ORD 41.97860
##  7  2013     1     1  N516JB    EWR 40.69250 -74.16867   FLL 26.07258
##  8  2013     1     1  N829AS    LGA 40.77725 -73.87261   IAD 38.94453
##  9  2013     1     1  N593JB    JFK 40.63975 -73.77893   MCO 28.42939
## 10  2013     1     1  N3ALAA    LGA 40.77725 -73.87261   ORD 41.97860
## # ... with 336,766 more rows, and 1 more variables: lon.y <dbl>
…
2. Filter flights to only show flights with planes that have flown at least 100 flights.

flights100 <- flights %>%
  group_by(tailnum) %>%
  count() %>%
  filter(n >= 100)

flights %>%
  semi_join(flights100, by = "tailnum")

## # A tibble: 230,902 x 19
##     year month   day dep_time sched_dep_time dep_delay arr_time
##    <int> <int> <int>    <int>          <int>     <dbl>    <int>
##  1  2013     1     1      517            515         2      830
##  2  2013     1     1      533            529         4      850
##  3  2013     1     1      544            545        -1     1004
##  4  2013     1     1      554            558        -4      740
##  5  2013     1     1      555            600        -5      913
##  6  2013     1     1      557            600        -3      709
##  7  2013     1     1      557            600        -3      838
##  8  2013     1     1      558            600        -2      849
##  9  2013     1     1      558            600        -2      853
## 10  2013     1     1      558            600        -2      923
## # ... with 230,892 more rows, and 12 more variables: sched_arr_time <int>,
## #   arr_delay <dbl>, carrier <chr>, flight <int>, tailnum <chr>,
## #   origin <chr>, dest <chr>, air_time <dbl>, distance <dbl>, hour <dbl>,
## #   minute <dbl>, time_hour <dttm>

3. Combine fueleconomy::vehicles and fueleconomy::common to find only the records for the most common models.

vehicles %>% 
  semi_join(common, by = "model")

## # A tibble: 14,631 x 12
##       id  make   model  year           class           trans
##    <int> <chr>   <chr> <int>           <chr>           <chr>
##  1  1833 Acura Integra  1986 Subcompact Cars Automatic 4-spd
##  2  1834 Acura Integra  1986 Subcompact Cars    Manual 5-spd
##  3  3037 Acura Integra  1987 Subcompact Cars Automatic 4-spd
##  4  3038 Acura Integra  1987 Subcompact Cars    Manual 5-spd
##  5  4183 Acura Integra  1988 Subcompact Cars Automatic 4-spd
##  6  4184 Acura Integra  1988 Subcompact Cars    Manual 5-spd
##  7  5303 Acura Integra  1989 Subcompact Cars Automatic 4-spd
##  8  5304 Acura Integra  1989 Subcompact Cars    Manual 5-spd
##  9  6442 Acura Integra  1990 Subcompact Cars Automatic 4-spd
## 10  6443 Acura Integra  1990 Subcompact Cars    Manual 5-spd
## # ... with 14,621 more rows, and 6 more variables: drive <chr>, cyl <int>,
## #   displ <dbl>, fuel <chr>, hwy <int>, cty <int>
…
The main pattern I saw was high humidity with little to no precipitation across both days, with different temperatures, dewpoints, and wind speeds.

flights2 <- flights %>%
  group_by(year, month, day) %>%
  filter(dep_delay > 0, !is.na(dep_delay)) %>%
  summarize(avg_delay = mean(dep_delay)) %>%
  arrange(desc(avg_delay), month, day) %>%
  head(2)

weather %>%
  semi_join(flights2, by = c("month", "day")) %>%
  arrange(month, day, hour)

## # A tibble: 143 x 15
##    origin  year month   day  hour  temp  dewp humid wind_dir wind_speed
##     <chr> <dbl> <dbl> <int> <int> <dbl> <dbl> <dbl>    <dbl>      <dbl>
##  1    EWR  2013     3     8     0 35.60 33.80 93.08      350   16.11092
##  2    JFK  2013     3     8     0 33.80 30.20 86.49      340   24.16638
##  3    LGA  2013     3     8     0 35.60 30.20 80.51      340   16.11092
##  4    EWR  2013     3     8     1 35.06 32.00 88.47      340   16.11092
##  5    JFK  2013     3     8     1 33.98 30.92 88.42      340   18.41248
##  6    LGA  2013     3     8     1 33.98 30.92 88.42      340   16.11092
##  7    EWR  2013     3     8     2 35.06 32.00 88.47      350   13.80936
##  8    JFK  2013     3     8     2 33.80 30.20 86.49      340   18.41248
##  9    LGA  2013     3     8     2 35.06 30.92 84.69      340   11.50780
## 10    EWR  2013     3     8     3 33.80 32.00 93.03      340   11.50780
## # ... with 133 more rows, and 5 more variables: wind_gust <dbl>,
## #   precip <dbl>, pressure <dbl>, visib <dbl>, time_hour <dttm>
…
